<?xml version="1.0" encoding="utf-8"?>
<!-- Generator: Adobe Illustrator 22.0.1, SVG Export Plug-In . SVG Version: 6.00 Build 0)  -->
<svg version="1.1" id="Слой_1" xmlns="http://www.w3.org/2000/svg" xmlns:xlink="http://www.w3.org/1999/xlink" x="0px" y="0px"
	 viewBox="0 0 2201.7 882.9" style="enable-background:new 0 0 2201.7 882.9;" xml:space="preserve">
<style type="text/css">
	.st0{fill:#FEFEFE;}
	.st1{fill:#ffc600;}
</style>
<g>
	<path class="st0" d="M1620.6,351.6c0-73.6-0.1-147.3,0.1-220.9c0.1-45.1,29.3-83.1,72.6-95.4c9.4-2.7,18.9-3.5,28.6-3.5
		c44.3,0.1,88.6,0.1,133,0c150.7-0.3,279.9,107.3,310.6,251.9c33.1,155.7-51,311.6-199.2,367.6c-35.2,13.3-71.8,20.1-109.4,20.4
		c-45.3,0.4-90.6,0.3-136,0.1c-49.8-0.3-89.4-33.5-99-82.2c-1.4-6.9-1.3-13.9-1.3-20.9C1620.6,496.3,1620.6,424,1620.6,351.6z
		 M1699.3,351.1c0,72.3,0,144.6,0,216.9c0,17,7.5,24.4,24.4,24.4c44.3,0.1,88.6,0,133,0c22.1,0,43.8-3.4,65-9.6
		c88.9-25.7,158.7-104.6,169.8-199.9c6.6-56.5-2.9-109.8-33.5-158c-42.8-67.5-104.3-106.6-184.4-113c-51.2-4.1-102.6-1.1-153.9-1.2
		c-11.9,0-19.5,8.6-20.4,20.5c-0.2,2.7-0.1,5.3-0.1,8C1699.3,209.8,1699.3,280.5,1699.3,351.1z"/>
	<path class="st1" d="M1171.4,684.4c-159.2,1.4-304.5-111.6-333.7-277.4c-33.2-188.6,92.1-354.1,262.7-389.2
		c147.6-30.4,295.1,38.5,366.4,171c4.3,8,8,16,8.4,25.3c0.6,19.2-11.1,35.3-29.5,40.1c-17.8,4.6-36-3.4-44.4-20.2
		c-23.5-46.8-57.9-83.5-103.1-110c-92.8-54.4-214.6-43.1-295.9,27.2c-46.3,40.1-76.8,89.8-86.4,150.2
		c-16.4,103.4,17.2,188.5,99.8,253c39,30.5,84.3,46.2,133.7,50.2c107.2,8.7,204.8-50,250.8-141.7c6.1-12.2,14.2-21.7,27.9-25.1
		c15.8-3.9,29.2,0.5,39.6,12.6c10.5,12.1,12.6,26.5,6.2,41.1c-7.6,17.4-17.4,33.8-28.5,49.2c-55.5,76.9-129.7,123.9-223.5,139.6
		C1204.6,683.4,1187,684.6,1171.4,684.4z"/>
	<path class="st0" d="M442.6,350.6c0-90.7,0-181.3,0-272c0-6.3,0.1-12.6,2.3-18.7c6.9-19.2,26-30.6,46.8-27.8
		c19.4,2.7,34.8,19.8,35.6,39.9c0.2,4,0.1,8,0.1,12c0,162.7,0,325.3,0,488c0,2,0,4,0,6c0.1,8.4,0.1,8.4,8.9,8.4
		c65.3,0,130.7,0,196,0c3,0,6-0.1,9,0.1c19.1,1.1,35,13.7,39.7,31.2c7.2,26.7-11.5,52.2-39.5,54c-2,0.1-4,0.1-6,0.1
		c-81.7,0-163.3,0-245,0c-6.4,0-12.8-0.4-18.7-2.7c-17.4-6.9-27-19.9-28.9-38.5c-0.4-3.6-0.2-7.3-0.2-11
		C442.6,529.9,442.6,440.3,442.6,350.6z"/>
	<path class="st0" d="M202.6,496.1c-43.7,0-87.3,0-131,0c-4,0-8.1,0.1-11.9-0.7c-15.1-3.1-26.4-16.4-26.5-32.1c-0.2-46-0.3-92,0-138
		c0.1-16.4,11.6-29,27.8-31.7c3.9-0.6,8-0.8,11.9-0.8c86.3,0,172.7,0,259,0c3.7,0,7.3,0.2,10.9,0.7c16.4,2.6,27.6,14.7,28.5,31.2
		c0.4,7.3,0.2,14.7,0.2,22c0,37.7,0.1,75.3,0,113c-0.1,18.4-10,31.6-26.1,35.7c-3.9,1-7.9,0.8-11.9,0.8
		C289.9,496.1,246.2,496.1,202.6,496.1z M201.9,428.3c27.7,0,55.3,0.1,83,0c5.9,0,13.5,2.5,17.4-1.1c4.5-4.1,1.4-11.9,1.6-18.1
		c0.3-13.3,0.1-26.7,0.1-40c0-8.5-0.1-8.5-8.9-8.5c-1.7,0-3.3,0-5,0c-44.3,0-88.6,0-133,0c-15.7,0-31.3,0-47,0c-9.7,0-9-0.5-9,9.4
		c0,16.3,0,32.7,0,49c0,10.3-0.9,9.4,9.9,9.4C141.2,428.3,171.5,428.3,201.9,428.3z"/>
	<path class="st0" d="M202.7,31.8c44.7,0,89.3,0.1,134-0.1c12.8-0.1,22.5,5,29.7,15.3c3.9,5.7,5.3,12.1,5.3,18.9
		c0,44.7-0.3,89.3,0.1,134c0.2,20.3-18,34.9-35.9,34.8c-89-0.6-178-0.6-267,0c-18.9,0.1-36.2-15-36-35.6c0.6-44,0.6-88,0-132
		c-0.3-19.6,15-35.9,35.8-35.6C113.3,32.3,158,31.8,202.7,31.8z M202.2,166.7c31.7,0,63.3-0.1,95,0.1c5.1,0,7-1.4,6.9-6.7
		c-0.3-17.7-0.1-35.3-0.1-53c0-7.4-0.1-7.6-7.7-7.6c-48.3,0-96.6,0-144.9,0c-14.3,0-28.7-0.1-43,0c-7.1,0-7.2,0.2-7.2,7.1
		c-0.1,17.3-0.1,34.7,0,52c0,8,0.1,8.1,8.2,8.1C140.2,166.7,171.2,166.7,202.2,166.7z"/>
	<path class="st1" d="M1306.9,388.4c-57.3,0-114.6-0.1-172,0.1c-8.9,0-17.2-1.4-24.7-6.4c-15.1-10-22-27.9-17.3-45.3
		c4.6-17.1,19.7-29.1,38-30.3c2.7-0.2,5.3-0.1,8-0.1c112.3,0,224.6,0,336.9,0c5.3,0,10.6,0.1,15.9,1.4c20.6,4.9,33.3,23,31.3,44.8
		c-1.7,19.5-18.9,35.5-39.2,35.7c-31.3,0.3-62.6,0.1-94,0.1C1362.3,388.4,1334.6,388.4,1306.9,388.4z"/>
	<path class="st0" d="M201.4,554.3c42.7,0,85.3,0,128,0c5.7,0,11.3,0,16.9,1.5c15,4,25,16.6,25.1,32.1c0.1,15.5-9.5,28.2-24.5,32.6
		c-6.2,1.8-12.5,1.7-18.8,1.7c-71,0-142,0-212.9,0c-13.5,0-13.5,0-14,13.3c-0.6,17.6-9.8,30.5-24.8,34.8
		c-20.6,5.9-41.3-8.1-42.6-30.1c-1.1-18.3-0.9-36.7-0.2-55c0.7-17.3,14.6-30.2,32.1-30.8c10.3-0.4,20.7-0.1,31-0.1
		C131.4,554.2,166.4,554.3,201.4,554.3z"/>
	<path class="st0" d="M982.2,856.9c-13.1,3.9-21,0-25.2-11.7c-1.5-4-4.1-7.6-6.2-11.4c-1.2-2.2-2.6-3.5-5.4-3.7
		c-5.3-0.3-6.4,0.3-6.5,5.7c-0.1,5.3-0.3,10.7,0,16c0.3,4.8-1.4,6.8-6.2,6.2c-1.6-0.2-3.3-0.1-5,0c-3.4,0.2-4.8-1.3-4.7-4.7
		c0.1-7.3,0-14.6,0-21.7c-9.7-1.9-9.8-2-13.8,5.1c-3,5.2-6,10.4-8.6,15.8c-2,4.1-4.5,6.2-9.3,5.7c-3.6-0.4-7.2-0.1-11.9-0.1
		c4.5-10.3,9.9-19.1,15.4-27.7c4-6.2,4-11-0.2-17c-5-7.3-9.2-15.3-14.4-24.2c3.9-0.2,6.7-0.1,9.5-0.5c5.5-0.9,8.6,1.5,10.9,6.3
		c2.4,5.1,5.8,9.8,8,14.9c2.8,6.5,7.1,8.2,14.3,5.8c0-6.6,0.3-13.6-0.1-20.5c-0.3-5.5,2-7.2,7-6.6c0.3,0,0.7,0,1,0
		c7.8,0,7.8,0,7.9,7.5c0.1,6.6,0,13.2,0,19.5c7.4,2.8,11.5,0.2,14.1-6c1.4-3.3,4.1-6.2,5.2-9.6c3.7-11,11.4-13.4,22.7-10.5
		c-3.2,5.6-6.5,10.9-9.3,16.4c-2.9,5.6-8.9,10.5-8.1,16.6c0.7,5.5,5.2,10.6,8.2,15.8C975,844.3,978.5,850.3,982.2,856.9z"/>
	<path class="st0" d="M23,871.2c0-5.6,0-11.5,0-17.5c0-4.6-0.8-8.9,6-10.1c4-0.7,5.1-5.7,6.1-9.6c3-12,2.5-24.4,3.3-36.7
		c0.6-9.7,0.3-8.7,8.8-8.7c12.6,0,25.3,0.3,37.9-0.1c5.4-0.2,6.8,1.9,6.7,6.9c-0.2,14,0,27.9-0.1,41.9c0,4.4,0.1,8.1,6.1,7.4
		c3.4-0.4,3.4,2.3,3.5,4.7c0.1,5,0.1,10,0,15c-0.1,8-0.1,7.8-8.2,8c-4.4,0.1-7.1-0.6-6.4-5.8c0.3-2.6,0.6-5.3-1.2-8.4
		c-13.9,0-28.2,0.1-42.4,0c-3.3,0-5,1-4.8,4.5c0.1,1.7-0.1,3.3,0,5c0.2,3.3-1.1,5-4.5,4.7C30.4,871.9,27,872.7,23,871.2z
		 M46.8,843.9c8.7,1.4,17,0.4,25.2,0.7c3.2,0.1,3.8-1.8,3.8-4.5c-0.1-7,0-14,0-21c0-18.4,0-18.2-18.2-17.2c-4,0.2-4.9,1.7-5.1,5.3
		C51.8,819.5,51.4,831.8,46.8,843.9z"/>
	<path class="st0" d="M374.1,823c-2.1,11.3,0.2,22.9-1.3,34.4c-4.3,1.2-8.6,0.6-13.5,0.5c0-23,0-45.7,0-68.4
		c8.4-2.8,13.8-0.1,17.8,7.8c4.8,9.5,10.8,18.4,16.3,27.4c1.2,1.9,1.9,4.4,4.9,5.4c7.1-11.9,14.1-23.8,21.3-35.8
		c1.3-2.2,2.1-4.8,5.2-5.7c8-2.2,11.6,0.3,11.6,8.8c0,18,0.1,36,0,54c0,6.6-0.2,6.6-7.8,6.6c-7.3,0-7.4,0-7.5-6.8
		c-0.1-10,0-20,0-29.9c-3.6-0.7-3.8,2.4-4.9,4c-4.1,6.5-7.8,13.2-11.8,19.7c-4.8,7.8-9,7.9-13.8,0.3c-4.8-7.5-9.4-15.2-14.1-22.8
		C375.6,822.7,374.9,822.8,374.1,823z"/>
	<path class="st0" d="M1958.8,789.5c0,22.5,0,45.1,0,67.8c-4.7,1-9.3,1-14.8-0.1c0-11.8,0-23.6,0-35.4c-6.3,4.5-9.1,10.7-12.7,16.4
		c-1.8,2.8-3.3,5.8-5.1,8.5c-3.4,5.1-8.3,5.2-11.6,0.1c-5.4-8.3-10.5-16.9-16.1-26c-2.9,4.2-1.6,8.2-1.7,11.9c-0.2,6,0.1,12-0.1,18
		c-0.1,2.4,1.4,5.9-2.1,6.9c-3.8,1-8.1,1.2-11.8-0.2c-2.3-0.9-1.4-4.2-1.4-6.4c0-18.3-0.1-36.6,0-54.9c0-2.7-1.5-6.9,2.9-7.2
		c4-0.3,8.8-2.1,11.9,2.4c1.5,2.2,2.8,4.5,4.1,6.8c6.5,10.7,12.9,21.4,20.1,33.3c6.3-10.5,11.9-19.8,17.5-29.1c1-1.7,2-3.4,3-5.2
		C1946.5,787.8,1946.5,787.8,1958.8,789.5z"/>
	<path class="st0" d="M319.2,816.3c-8.7,11.8-17.3,23.6-26,35.3c-4.3,5.9-10.5,8-17.1,6.3c-2.6-0.7-2.8-2.5-2.8-4.5c0-20,0-40,0-60
		c0-3.3,1.1-5,4.6-4.9c2.3,0.1,4.7,0.2,7,0c3.7-0.3,4.5,1.7,4.5,4.9c-0.1,8.7-0.1,17.3,0,26c0.1,3.2-0.8,6.6,1,9.6
		c3.3,0.8,3.8-2.1,5.1-3.8c8-10.7,15.8-21.5,23.7-32.2c2.9-4,11.7-6.1,16.1-4.2c2,0.8,1.9,2.5,1.9,4.1c0,20.3,0,40.6,0,61
		c0,2.9-1.1,4.3-4.1,4.1c-1.7-0.1-3.4-0.2-5,0c-5.1,0.6-7.1-1.2-6.9-6.6c0.4-10,0.1-20,0.1-30c0-1.6-0.2-3.1-0.3-4.7
		C320.4,816.6,319.8,816.5,319.2,816.3z"/>
	<path class="st0" d="M1796.7,857.1c0-11,0-22.2,0-33.5c0-9.7,0.2-19.3-0.1-29c-0.2-5,1.7-6.7,6.4-6c1,0.1,2,0.1,3,0
		c5-0.6,7.2,1.1,7,6.6c-0.4,9.6-0.1,19.3-0.1,29c0,1.9-0.7,3.9,1.6,6.4c3.4-4.4,6.7-8.7,10-13c5.7-7.8,11.4-15.6,17.1-23.3
		c3.7-4.9,11.1-7.1,16.5-5.3c2.6,0.9,2.4,2.9,2.4,4.8c0,8.3,0,16.6,0,25c0,10.7,0.1,21.3,0,32c-0.1,7.4-0.2,7.4-7.9,7.4
		c-1,0-2-0.1-3,0c-4,0.5-5.1-1.5-5-5.2c0.2-9.7,0.1-19.3,0-29c0-2.1,0.7-4.6-1.4-6.4c-3.2,0.3-4,3.2-5.5,5.2
		c-6.4,8.5-13.2,16.8-18.7,25.9C1813.8,857.3,1807.1,860.1,1796.7,857.1z"/>
	<path class="st0" d="M565.1,857.9c0-23.7,0-46.2,0-69.1c11.8,0,23.1-0.1,34.4,0.1c3.3,0.1,6.7,0.7,9.8,1.7
		c13.1,4.1,16.8,16.9,8.2,27.7c-0.8,1-1.9,1.9-3.3,3.2c5.5,4.3,11.2,8.3,11.1,16.5c-0.1,7.9-3.3,13.4-10.2,16.8
		c-3.9,1.9-8.2,3.1-12.5,3.1C590.3,858,578,857.9,565.1,857.9z M591.8,845.8c3,0,6,0.3,8.9-0.1c5.4-0.7,8.1-3.7,8.2-8.3
		c0.1-4.7-2.2-7.7-7.8-8.5c-4.9-0.7-9.9-0.2-14.8-0.6c-4.4-0.3-5.6,1.5-5.7,5.7C580.1,846,579.9,846,591.8,845.8z M593,817.3
		c0.6-0.1,3.6-0.1,6.5-0.6c4.2-0.8,6.1-3.6,5.9-7.9c-0.1-3.8-1.9-6.4-5.6-7.1c-2.6-0.5-5.3-0.7-7.9-0.7c-11.8-0.2-12.4,0.7-11.3,12
		c0.3,3.5,1.8,4.6,5,4.4C587.2,817.2,588.9,817.3,593,817.3z"/>
	<path class="st0" d="M1563.3,789.7c0,12.9,0,26,0,39c4.2,1.1,4.7-1.8,6-3.5c7.6-10.1,15-20.4,22.5-30.5c4.4-6,9.3-7.6,16.3-6
		c2.6,0.6,3,2.3,3,4.4c0,20.3,0,40.6,0,60.9c0,2.9-1.3,4.2-4.2,4.1c-1.7-0.1-3.3-0.2-5,0c-5.1,0.6-7.1-1.2-6.9-6.6
		c0.4-10,0.1-20,0.1-29.9c0-1.6-0.1-3.1-0.3-5.5c-3.3,1.6-4.5,4-6,6c-7.3,9.9-14.6,19.8-21.9,29.7c-4.3,5.9-10.4,7.9-17.1,6.2
		c-2.6-0.7-2.7-2.5-2.7-4.5c0-20,0-39.9,0-59.9c0-3.2,0.9-5.2,4.5-4.9C1555.1,788.9,1558.8,788,1563.3,789.7z"/>
	<path class="st0" d="M1254.6,857.1c0-12.9,0-26.2,0-39.5c0-8,0.1-16,0-24c-0.1-3.9,1.4-5.5,5.3-5.1c1.6,0.2,3.3,0.2,5,0
		c4.2-0.4,6,1.3,5.9,5.7c-0.3,7.2-0.1,14.5-0.1,21.4c8.2,2.8,12.9,0.1,16.2-6.5c1.6-3.3,4.3-6,5.8-9.3c4.5-9.8,11.5-14.1,22.7-10.3
		c-2.1,6.8-7.4,12-11.1,18.1c-2.9,4.8-8,9.3-8.5,14.3c-0.6,5.6,5.7,10,8.4,15.3c2.7,5.2,6.1,8.5,12.5,7.4c2.8-0.5,4.3,1.1,4.3,4
		c0,6.7,0,13.3,0,20c0,2.5-1.5,3.2-3.8,3.5c-8.9,1.2-10.6,0-11.3-9.1c-0.2-2.9-0.4-5.2-4.2-5.2c-3.3,0-4.1-3-5.5-5.1
		c-4-6.1-8.1-12.2-11.9-18.5c-2-3.3-4.6-4.2-8.2-4.2c-3.6,0-5.6,0.7-5.4,4.9c0.3,5.6-0.2,11.3,0.1,17c0.3,5-1.8,6.6-6.4,6.1
		C1261.3,857.7,1258.3,858.5,1254.6,857.1z"/>
	<path class="st0" d="M641.5,823.1c0-9.3,0.2-18.6-0.1-27.9c-0.1-4.4,0.9-6.7,6-6.6c13.6,0.3,27.3,0.3,40.9,0
		c5.4-0.1,5.9,2.5,5.9,6.8c0,4.4-0.8,6.8-6,6.6c-8.3-0.4-16.6,0.2-24.9-0.2c-6.6-0.3-5.4,4-5.5,7.9c-0.1,3.8-0.3,7.3,5.4,7
		c6.6-0.4,13.3-0.2,20-0.1c6.5,0.1,6.5,0.4,6.7,6.7c0.2,4.7-1.4,6.6-6.3,6.3c-6.6-0.4-13.3,0.2-19.9-0.2c-6.4-0.4-5.9,3.6-5.8,7.7
		c0.1,3.9-0.9,8.3,5.6,7.9c7.3-0.3,14.6-0.1,22-0.1c9.8,0,9.8,0,9.9,6.3c0.1,6.8,0.1,6.8-9.4,6.8c-11.6,0-23.3,0-34.9,0
		c-9.5,0-9.5,0.9-9.4-9C641.5,840.4,641.5,831.7,641.5,823.1z"/>
	<path class="st0" d="M1654,802.7c-1.4,5.8-0.7,11.8-0.9,17.7c-0.4,9-1,18-4.3,26.5c-3.7,9.6-11,13.6-20.5,11.7
		c-1.7-0.3-3.4-0.5-3.5-2.7c-0.1-2.7,0.1-5.3,0.2-8c0.1-4.2,3.6-2.9,5.8-3.8c4.3-1.7,5.3-5.6,6.2-9.6c2.4-10.1,1.9-20.5,2.3-30.8
		c0.5-15.1,0.4-15.1,15.8-15.1c10.3,0,20.6,0.2,31-0.1c4.9-0.1,7.2,1,7.1,6.5c-0.3,19-0.3,38,0,56.9c0.1,4.9-1.7,6.7-6.4,6.1
		c-1.3-0.2-2.7-0.1-4,0c-4.3,0.5-5.9-1.3-5.8-5.7c0.2-13.3,0.1-26.6,0.1-39.9c-0.1-11.8,1.3-10.3-10.8-10.4
		C1662.2,802,1658.2,801.5,1654,802.7z"/>
	<path class="st0" d="M185.1,857.1c-1.4,1.2-3.1,0.7-4.7,0.9c-7.3,1-13.1-0.4-14.6-9c-0.7-4.1-3.3-6-7.8-5.8
		c-7.3,0.3-14.7,0.2-22,0.1c-3.1-0.1-5,1.1-6.2,3.9c-1.4,3.3-2.2,7-4.6,9.8c-0.4,0.4-1.1,0.8-1.7,0.8c-4.3,0.1-8.6,0-13,0
		c-0.8-3.1,0.9-5.3,1.9-7.6c8.1-18.2,16.5-36.4,24.2-54.8c2.3-5.6,5.5-7,11.2-7.1c6-0.1,8.8,2,11.1,7.4
		c7.8,18.4,16.1,36.5,24.3,54.8C184,852.7,185.4,854.6,185.1,857.1z M147.6,805.5c-4.2,9.1-7.8,16.3-9.9,25.1
		c6.7-0.3,12.8,0.6,19.5-0.7C155,821.6,151.3,814.3,147.6,805.5z"/>
	<path class="st0" d="M1061.3,857.1c-1.7,1.2-3.5,0.7-5.1,1c-7.6,1.2-12.9-0.9-14.5-9.2c-0.8-4.3-3.6-5.8-8-5.6c-7,0.3-14,0.2-21,0
		c-3.3-0.1-5.7,0.7-7.1,4.1c-1.3,3.4-2.1,7.1-4.7,9.8c-0.4,0.4-1.2,0.7-1.8,0.7c-4.3,0.1-8.6,0-13.2,0c0.1-4.6,2.5-7.9,4-11.5
		c7.6-17.4,15.6-34.6,23-52c2.1-4.9,5.1-6.2,10-5.9c4.7,0.3,8.7-0.2,11.1,5.7c8.4,19.9,17.5,39.5,26.3,59.3
		C1061,854.6,1061,856,1061.3,857.1z M1023.8,805.6c-4.4,8.7-8.1,16-9.8,25.1c6.8-0.4,12.9,0.6,19.8-0.8
		C1030.4,821.7,1027.5,814.4,1023.8,805.6z"/>
	<path class="st0" d="M1441.7,822.8c0-9-0.1-17.9,0-26.9c0.1-7.2,0.2-7.2,7.2-7.3c9.2-0.2,9.2-0.2,9.3,9.2
		c0.1,13.9,0.1,13.9,14.4,14c4,0,8-0.1,11.9,0.6c9.3,1.7,15.3,7.9,16.6,16.3c1.7,11.6-1.7,20.4-10,25.1c-4.7,2.7-9.9,4-15.2,4.1
		c-9.3,0.2-18.6-0.2-27.9,0.2c-4.9,0.2-6.4-1.7-6.3-6.4C1441.9,842.1,1441.7,832.5,1441.7,822.8z M1458.2,834.2c0,2.6,0,5.3,0,7.9
		c0,2.2,0.8,3.9,3.3,3.9c5.3-0.1,10.6,0.8,15.7-0.7c5.7-1.7,8.4-6.1,7.9-12.1c-0.5-5.6-3.4-8.5-9.6-9.3c-2.3-0.3-4.6-0.3-6.9-0.2
		C1456.6,823.7,1458.4,822.3,1458.2,834.2z"/>
	<path class="st0" d="M1783.3,858c-3,0-4.6-0.2-6.2,0c-7.4,1.3-12.2-1.3-13.7-8.9c-1-4.8-4.1-6.2-8.8-5.9c-7,0.3-14,0.2-21,0.1
		c-3,0-5.6,0.8-6.2,3.8c-2.1,11.7-10.1,12.1-19.3,10.4c-1.4-1.6-0.1-3,0.5-4.4c8.6-19.5,17.6-38.8,25.8-58.4
		c2.3-5.6,5.7-6.2,10.8-6.2c5.1-0.1,8.4,0.8,10.7,6.3c8.3,19.6,17.2,38.9,25.9,58.4C1782.2,854.3,1782.5,855.5,1783.3,858z
		 M1734.4,830.4c7.9,0.1,14,0.6,21.2-0.5c-4.2-7.9-5.8-15.9-11.1-23.8C1740.9,814.8,1737.9,822,1734.4,830.4z"/>
	<path class="st0" d="M1980.6,789.7c1.1-0.5,1.4-0.7,1.8-0.7c14.2-1.2,14.2-1.2,14.3,12.7c0,3,0,5.9,0,8.7c3.3,2.1,6.3,1.2,9.1,1.3
		c4.6,0.2,9.3-0.1,14,0.3c12.1,1,19.1,7.8,20.3,19.4c1.2,11.9-4.5,21.1-15.6,24.8c-7.8,2.6-15.8,2.1-23.7,1.8
		c-6.5-0.2-14.8,3-19-1.5c-3.7-4-1-12.1-1.1-18.4C1980.5,821.8,1980.6,805.6,1980.6,789.7z M2006.6,823.8c-11.4,0-9.9-1.4-10,9.8
		c0,3,0,6,0,8.9c0,1.8,0.6,3.4,2.7,3.4c5.3,0,10.6,0.8,15.8-0.5c6.2-1.5,9.1-6.2,8.4-12.7c-0.6-5.6-3.4-8.2-10-8.9
		C2011.3,823.6,2009,823.8,2006.6,823.8z"/>
	<path class="st0" d="M1090.6,857.3c-0.7,0.2-1.4,0.6-2,0.6c-16.5,0.1-13.1,1.3-13.3-12.9c-0.2-16.3-0.1-32.6,0-48.8
		c0-7.4,0.2-7.6,7.8-7.5c10.9,0.2,22-1.2,32.8,1.4c11.4,2.7,18.5,10.6,19.2,21.3c1,14.2-7,24.5-21.1,26.7
		c-5.5,0.9-11.3,0.8-16.9,0.8c-4.1,0-6,1.3-5.9,5.7C1091.3,848.8,1092,853.2,1090.6,857.3z M1091.3,811.3c0,4.7,0,7.6,0,10.6
		c0,1.7,0.2,3.6,2.3,3.7c6.9,0.3,14,1.6,20.3-2.2c7.3-4.4,6.7-15.5-0.9-19.6c-3.4-1.8-7-1.8-10.6-1.8
		C1089.5,802.1,1091.5,800.9,1091.3,811.3z"/>
	<path class="st0" d="M215.2,857.4c-16.2,1.3-16.2,1.3-16.2-13.7c0-16-0.1-31.9,0-47.9c0-7,0.2-7.3,7.2-7.2
		c10.9,0.2,21.9-1.1,32.8,1.3c11.9,2.7,19.2,10.6,20,21.7c0.9,13.9-7.4,24.3-21.6,26.4c-5.2,0.8-10.6,0.8-15.9,0.7
		c-4.6-0.1-6.8,1.3-6.4,6.2C215.4,849,215.2,853,215.2,857.4z M227.3,802c-13.4,0.1-12-0.9-12.1,10c0,3.3,0,6.7,0,10
		c0,2.3,0.9,3.9,3.4,3.9c5.3-0.2,10.7,0.8,15.9-1c5.7-2,8.3-5.4,8.3-11c0-5.8-3.3-10-9.3-11.3C230.9,802,228.2,802.1,227.3,802z"/>
	<path class="st0" d="M2081.7,793.1c11.7-6.4,23.8-7.2,36-3.9c18.1,4.9,21.9,18.6,9.3,32.9c5.1,3.8,10,7.6,10.4,14.8
		c0.4,7.5-2.5,13.1-8.8,16.6c-15.3,8.5-30.7,6.8-46.1,0c-4.4-1.9-1.6-5-0.7-7.5c1-2.7,1.8-6,6.2-3.9c5.5,2.6,11.3,4,17.4,3.8
		c1.3,0,2.7,0,4-0.2c7.7-1.2,12.1-4.9,11.7-10c-0.3-4.6-4.4-7-12.4-7.3c-3-0.1-6,0-9,0c-6.3-0.1-9.1-4.5-6.7-10.2
		c0.8-2,2.5-1.8,4.1-1.8c4.7-0.1,9.3-0.1,14-0.4c4.1-0.3,7.1-2.6,7.3-6.8c0.2-3.7-2.6-5.8-5.9-7.2c-6.6-2.8-13.1-1.2-19.6,0.5
		c-7.3,2-7.3,2.1-9.7-4.4C2082.6,796.6,2082.2,795,2081.7,793.1z"/>
	<path class="st0" d="M1149.5,823.6c0-9.6,0.2-19.3-0.1-28.9c-0.2-5,1.9-6.6,6.5-6.1c1.3,0.1,2.7,0.1,4,0c4.1-0.4,6.2,1,6,5.5
		c-0.2,4.3,0,8.6,0,13c0,3.2,1.4,4.8,4.8,4.7c5.6-0.1,11.3-0.2,16.9,0.1c12.5,0.7,20.3,7.3,21.5,18c1.6,14-4.1,23.1-16.9,26.5
		c-12.7,3.4-25.8,1-38.7,1.6c-3.8,0.2-4-2.6-4-5.4C1149.5,842.9,1149.5,833.3,1149.5,823.6z M1176.2,823.8c0,0,0-0.1,0-0.1
		c-2.3,0-4.6-0.1-6.9,0c-1.8,0.1-3.4,0.9-3.3,2.8c0.2,6.2-2.7,13.8,1.3,18.2c3.3,3.7,10.6,1.1,16.1,1c0.3,0,0.7-0.1,1-0.2
		c6.1-1.7,9.3-6.3,8.6-12.6c-0.5-5.5-3.5-8.3-9.9-9.1C1180.8,823.6,1178.5,823.8,1176.2,823.8z"/>
	<path class="st0" d="M1428.5,800.5c-2.6,1.9-4.4,3-5.7,4.4c-3.2,3.4-5.5,3.7-9.9,0.7c-15.3-10.1-33.6-1-34.4,16.5
		c-0.4,8.7,2.4,15.9,10.2,20.2c7.9,4.4,15.9,4,23.8-0.5c2.1-1.2,3.6-4.9,6.6-2.9c2.8,1.8,5.2,4.2,7.3,6.8c1.8,2.2-0.8,3.5-2,4.8
		c-9.9,9.5-29.3,11.5-43.2,4.5c-13-6.5-20.4-20-19-34.5c1.5-15.1,9.2-25.7,23.7-30.3C1401,785.2,1415.3,787,1428.5,800.5z"/>
	<path class="st0" d="M539.8,837.9c3.9,2.4,6.9,5.3,9.5,8.7c-10.6,12.8-29.5,16.3-45.4,8.6c-15-7.3-22.4-23-18.8-40.2
		c3.1-15.3,17.3-26.5,34.1-27.1c10-0.4,19.1,1.5,27.1,8.1c3.5,2.9,3.4,4.9,0,7.9c-3.7,3.3-6.1,5.5-11.5,1.5
		c-9.1-6.7-22.3-4.6-29,3.3c-6.8,8-6.8,21.6,0.1,29.5c7.3,8.3,19.9,9.4,30,2.7C537.1,840,538.4,838.9,539.8,837.9z"/>
	<path class="st0" d="M726.8,829.2c0-7.3-0.1-14.7,0.1-22c0.1-3.8-1.3-5.5-5.2-5.2c-3,0.2-6,0.1-9,0c-8.1-0.1-8.2-0.5-7.9-8.5
		c0.1-4.1,2-5,5.6-5c16.3,0.1,32.7,0.2,49-0.1c5.5-0.1,5.5,2.9,5.6,7c0.1,4.4-0.6,7.3-5.9,6.5c-0.3,0-0.7,0-1,0
		c-4.8,0.6-11.1-2.4-14.2,1.5c-2.9,3.6-0.9,9.6-0.9,14.6c-0.1,10.3,0,20.7,0,31c0,9.1-0.1,9.1-9.5,8.9c-0.7,0-1.3-0.1-2,0
		c-3.6,0.4-4.6-1.6-4.5-4.8C726.9,845.2,726.9,837.2,726.8,829.2C726.9,829.2,726.9,829.2,726.8,829.2z"/>
	<path class="st0" d="M1526.4,822.8c0,9.6-0.2,19.3,0.1,28.9c0.1,4.8-1.4,6.9-6.3,6.3c-1.3-0.2-2.7-0.2-4,0
		c-4.9,0.7-6.3-1.5-6.2-6.2c0.2-14.6,0.1-29.3,0.1-43.9c0-4.7,0.1-9.3,0-14c-0.1-3.7,1.1-5.7,5.1-5.3c2,0.2,4,0.1,6,0
		c3.9-0.3,5.3,1.5,5.3,5.3C1526.4,803.5,1526.4,813.2,1526.4,822.8z"/>
	<path class="st0" d="M1217.7,823.8c0-9.3-0.1-18.6,0-28c0.1-7.1,0.2-7.1,7.2-7.3c9.1-0.2,9.2-0.2,9.2,9.3c0,17.3,0.1,34.6-0.1,51.9
		c0,2.7,1.7,6.7-2.2,7.8c-4.1,1.1-8.7,1.2-12.8-0.3c-1.9-0.7-1.4-3.5-1.4-5.5C1217.7,842.5,1217.7,833.2,1217.7,823.8z"/>
	<path class="st0" d="M2048.7,823.1c0-9.6,0.1-19.3-0.1-28.9c-0.1-4.4,1.6-6.1,5.8-5.6c1.3,0.1,2.7,0.1,4,0c4.6-0.5,6.7,1.1,6.5,6.1
		c-0.3,7.3-0.1,14.6-0.1,21.9c0,11.6-0.3,23.3,0.1,34.9c0.2,5.5-2,7.2-6.9,6.5c-1-0.1-2-0.1-3,0c-4.6,0.6-6.6-1-6.4-6
		C2049,842.4,2048.7,832.8,2048.7,823.1z"/>
	<path class="st0" d="M2150.6,788.9c21.4-0.3,18.6-3.5,17.2,17c-0.5,7.6-1.1,15.3-1.3,22.9c-0.1,4.6-2.6,5.5-6.5,5.2
		c-3.3-0.2-6.7,0.5-6.9-4.7C2152.4,816.2,2151.5,803,2150.6,788.9z"/>
	<path class="st0" d="M1827.9,784.5c-6.2,0-12.1-0.9-15.9-6.5c-1.5-2.2-4.3-5.7-1.3-7.8c2.7-1.8,6.8-2.1,10,0.9
		c7.6,7.3,8.2,7.4,16-0.1c2.9-2.8,6.2-1.7,9.3-1.3c1.9,0.3,1.5,2.7,1.1,4.3c-1.4,5.9-5.8,8.7-11.3,9.9
		C1833.2,784.5,1830.5,784.3,1827.9,784.5z"/>
	<path class="st0" d="M1597.7,769.9c0.7,3.6-0.5,6.3-2.4,8.7c-6.2,8.1-26.3,8.1-32.5,0.1c-1.2-1.5-1.7-3.5-2.4-5.4
		c-0.9-2.5,0.3-3.8,2.8-3.9c3.6-0.1,6.5-0.3,9.1,3.8c3.1,4.9,10.4,4.9,13.4,0C1589.3,767.3,1593.3,769.6,1597.7,769.9z"/>
	<path class="st0" d="M821.8,816.4c2.3,0,4.6,0,7,0c6.8,0.1,9.2,3.5,7.3,10c-0.5,1.8-1.7,2.8-3.5,2.8c-7,0-13.9,0.1-20.9,0
		c-4.6-0.1-3.8-3.7-3.9-6.6c0-2.9-0.5-6.3,4.1-6.3C815.2,816.5,818.5,816.4,821.8,816.4C821.8,816.4,821.8,816.4,821.8,816.4z"/>
	<path class="st0" d="M2160.1,858.4c-5.8,0.2-9.7-3.4-9.7-8.8c0-4.8,3.9-8.6,9-8.8c5.4-0.2,9.8,3.9,9.7,9.1
		C2169,854.8,2165.5,858.2,2160.1,858.4z"/>
</g>
</svg>
